%YAML 1.1
%TAG !u! tag:unity3d.com,2011:
--- !u!162 &1
EditorUserSettings:
  m_ObjectHideFlags: 0
  serializedVersion: 4
  m_ConfigSettings:
    RecentlyUsedScenePath-0:
      value: 22424703114646680e0b0227036c7c18171b142b222f237e38271427fb
      flags: 0
    RecentlyUsedScenePath-1:
      value: 22424703114646680e0b0227036c7a1e02120a3e2d21283d2827097df7ee3d2cfb
      flags: 0
    RecentlyUsedScenePath-2:
      value: 22424703114646680e0b0227036c791f19031a2b202468252320092a
      flags: 0
    RecentlyUsedScenePath-3:
      value: 22424703114646680e0b0227036c781519100a2b3c203f707c67083debf42d
      flags: 0
    RecentlyUsedScenePath-4:
      value: 22424703114646680e0b0227036c7719050317383566333e243d04
      flags: 0
    RecentlyUsedScenePath-5:
      value: 22424703114646680e0b0227036c72151802563f22213229
      flags: 0
    RecentlyUsedScenePath-6:
      value: 22424703114646680e0b0227036c721f001e1d39623d28393930
      flags: 0
    RecentlyUsedScenePath-7:
      value: 22424703114646680e0b0227036c6c131f1216292909283403280926f0e57a2decee22f0
      flags: 0
    RecentlyUsedScenePath-8:
      value: 22424703114646680e0b0227036c6c1f18100b6439262f2434
      flags: 0
    RecentlyUsedScenePath-9:
      value: 22424703114646680e0b0227036c6c0019050c39623d28393930
      flags: 0
    vcSharedLogLevel:
      value: 0d5e400f0650
      flags: 0
  m_VCAutomaticAdd: 1
  m_VCDebugCom: 0
  m_VCDebugCmd: 0
  m_VCDebugOut: 0
  m_SemanticMergeMode: 2
  m_VCShowFailedCheckout: 1
  m_VCOverwriteFailedCheckoutAssets: 1
  m_VCProjectOverlayIcons: 1
  m_VCHierarchyOverlayIcons: 1
  m_VCOtherOverlayIcons: 1
  m_VCAllowAsyncUpdate: 1
